{
  "variants": {
    "facing=north": { "model": "jervellmegapack:block/pizzaoven" },
    "facing=south": { "model": "jervellmegapack:block/pizzaoven", "y": 180 },
    "facing=west":  { "model": "jervellmegapack:block/pizzaoven", "y": 270 },
    "facing=east":  { "model": "jervellmegapack:block/pizzaoven", "y": 90 }
  }
}
