{
  "type": "minecraft:crafting_shaped",
  "pattern": [
    "###",
    "#W#",
    "###"
  ],
  "key": {
    "#": {
      "item": "minecraft:redstone"
    },
    "W": {
      "item": "minecraft:white_wool"
    }
  },
  "result": {
    "item": "jervellmegapack:arneblokk",
    "count": 1
  }
}