{
    "type": "minecraft:crafting_shaped",
    "pattern": [
        "###",
        "#F#",
        "SSS"
    ],
    "key": {
        "#": {
            "item": "minecraft:bricks"
        },
        "F": {
            "item": "minecraft:furnace"
        },
        "S": {
            "item": "minecraft:smooth_stone"
        }
    },
    "result": {
        "item": "jervellmegapack:pizzaoven",
        "count": 1
    }
}