{
  "type": "minecraft:crafting_shaped",
  "pattern": [
    "###",
    "###",
    "###"
  ],
  "key": {
    "#": {
      "item": "minecraft:beef"
    }
  },
  "result": {
    "item": "jervellmegapack:super_beef",
    "count": 1
  }
}